4/22/2014: New CHAR file
Garage	cnt
	      28617
 99	   3
0	      2
308	   2
320	   4
380	   2
504	   1
559	   2
576	   2
616	   2
99	      3985
RX	      3


--------------------------------------------------
DocCode  Count DocType
-------  ----- -------
01       552
02       99
03       456
06       290
09       13
10       55
11       8605
12       833
15       66
38       2
50       8357
51       283
52       3180
58       1978
5M       3
70       1
86       8
92       153

/w sale price > 0
01	      466
02	      48
03	      2
10	      16
11	      7821
12	      490
15	      2
50	      39
51	      192
58	      34
5M	      3
86	      2
92	      2