
DocCode
   12315
01 26439
02 4987
03 142
09 36
10 881
11 2264
12 150
3  1
58 28
81 6

+++ Unknown Usecode: 1001
+++ Unknown Usecode: 1010
+++ Unknown Usecode: 111
+++ Unknown Usecode: 13
+++ Unknown Usecode: 2001
+++ Unknown Usecode: 2122
+++ Unknown Usecode: 2133
+++ Unknown Usecode: 2144
+++ Unknown Usecode: 3001
+++ Unknown Usecode: 3201
+++ Unknown Usecode: 3301
+++ Unknown Usecode: 3401
+++ Unknown Usecode: 341
+++ Unknown Usecode: 3701
+++ Unknown Usecode: 372
+++ Unknown Usecode: 373
+++ Unknown Usecode: 374
+++ Unknown Usecode: 375
+++ Unknown Usecode: 3801
+++ Unknown Usecode: 3811
+++ Unknown Usecode: 382
+++ Unknown Usecode: 3821
+++ Unknown Usecode: 383
+++ Unknown Usecode: 3831
+++ Unknown Usecode: 384
+++ Unknown Usecode: 385
+++ Unknown Usecode: 3901
+++ Unknown Usecode: 392
+++ Unknown Usecode: 3921
+++ Unknown Usecode: 393
+++ Unknown Usecode: 3931
+++ Unknown Usecode: 394
+++ Unknown Usecode: 3941
+++ Unknown Usecode: 395
+++ Unknown Usecode: 4001
+++ Unknown Usecode: 411
+++ Unknown Usecode: 412
+++ Unknown Usecode: 413
+++ Unknown Usecode: 414
+++ Unknown Usecode: 4210
+++ Unknown Usecode: 4211
+++ Unknown Usecode: 4212
+++ Unknown Usecode: 4213
+++ Unknown Usecode: 4215
+++ Unknown Usecode: 5001
+++ Unknown Usecode: 72
